{
    "aliasColors":
        {
            "0": "#AE3C51",
            "1": "#6298FF",
            "2": "#D97529",
            "3": "#009246",
            "AOD": "#006019",
            "Analysis": "#FF00FF",
            "CA": "#FF1F1F",
            "CAF processing": "#CAD141",
            "CERN": "#AE3C51",
            "Custodial": "#FF0000",
            "DE": "#000000",
            "DESD": "#4189FF",
            "DPD": "#FEF100",
            "Data Processing": "#FFFF00",
            "Data Processing (XP)": "#008800",
            "Default": "#808080",
            "ES": "#EDBF00",
            "ESD": "#001640",
            "Extra Production": "#FF0000",
            "FR": "#0055A5",
            "Group Analysis": "#808080",
            "Group Production": "#008800",
            "HITS": "#FF6666",
            "IT": "#009246",
            "MC Event Generation": "#356C20",
            "MC Production": "#0000FF",
            "MC Reconstruction": "#00006B",
            "MC Reconstruction (XP)": "#D97529",
            "MC Simulation": "#0000FF",
            "MC Simulation (XP)": "#AE3C51",
            "MC Simulation Fast": "#0099CC",
            "MC Simulation Fast (XP)": "#0099CC",
            "MC Simulation Full": "#00CCCC",
            "MC Simulation Full (XP)": "#00CCCC",
            "ND": "#6298FF",
            "NL": "#D97529",
            "Other": "#66008D",
            "Others": "#00FFFF",
            "Others (XP)": "#009246",
            "Primary": "#FFA500",
            "RAW": "#FF0000",
            "RU": "#66008D",
            "Rest": "#625D5D",
            "Secondary": "#00FFFF",
            "T0 processing": "#DB9900",
            "TW": "#89000F",
            "Testing": "#00FF00",
            "ToBeDeleted": "#FFFF00",
            "UK": "#356C20",
            "UNKNOWN": "#FFA500",
            "US": "#00006B",
            "User Analysis": "#FF00FF",
            "Validation": "#000000",
            "analysis": "#FF0000",
            "bstream": "#0055A5",
            "cancelled": "#FF9933",
            "closed": "#808080",
            "evgen": "#D97529",
            "evgentx": "#AE3C51",
            "failed": "#bf1b00",
            "filter": "#DB9900",
            "finished": "#248F24",
            "ganga": "#1433CC",
            "gangarobot": "#006666",
            "gangarobot-64": "#009999",
            "gangarobot-filestager": "#00CCCC",
            "gangarobot-new": "#00FFFF",
            "gangarobot-nightly": "#99FF00",
            "gangarobot-pft": "#99CC33",
            "gangarobot-pft-trial": "#999966",
            "gangarobot-rctest": "#996699",
            "gangarobot-root": "#CC0000",
            "gangarobot-squid": "#CC0066",
            "gangarobotnew": "#CC3399",
            "hammercloud": "#A5D3CA",
            "merge": "#FFA600",
            "merging": "#47D147",
            "non-panda_analysis": "#CCCCCC",
            "pandamover": "#FFE920",
            "pile": "#FF00FF",
            "prod_test": "#B4D1B6",
            "production": "#CAD141",
            "ptest": "#89C7FF",
            "rc_test": "#A5FF8A",
            "reco": "#00006B",
            "reprocessing": "#008800",
            "running": "#47D147",
            "simul": "#0000FF",
            "software": "#FFCFA4s",
            "t0_caf": "#CAD141",
            "t0_processing": "#FFA600",
            "test": "#00FF00",
            "transfering": "#47D147",
            "txtgen": "#29AFD6",
            "validation": "#000000"
        }
}